{
  "locales": [
    "fr",
    "en",
    "es",
    "de"
  ],
  "name": {
    "fr": "La Brute",
    "en": "MyBrute",
    "es": "El Bruto",
    "de": "Mein Brutalo"
  },
  "url": {
    "fr": "http://labrute.muxxu.com/",
    "en": "http://mybrute.muxxu.com/",
    "es": "http://elbruto.muxxu.com/",
    "de": "http://meinbrutalo.muxxu.com/"
  },
  "tagline": {
    "fr": "Jeu de baston gratuit : battez-vous avec votre personnage !",
    "en": "A free combat game: Create the most brutal fighter ever!",
    "es": "¿Te gusta pelear? ...¡Eres uno de los nuestros!",
    "de": false
  },
  "description": {
    "fr": [
      "LaBrute.fr existe sous une nouvelle version sur Twinoid ! Créez votre Brute et mesurez-la aux autres internautes. Gagnez vos combats pour évoluer et obtenir la meilleure place dans le classement. Ainsi, vous aurez peut-être la chance de devenir une Légende Brutale !"
    ],
    "en": [
      "Create your own Brute and battle it out against the rest of the web. Find disciples, win fights to evolve and make it to the top spot in the rankings. If you make it that far, you just might have what it takes to become a Brutal Legend!"
    ],
    "es": [
      "¡Crea tu Bruto y a pelear! ¡Su destino como luchador depende de ti! Sin trucos, aquí el entrenamiento y el dominio de sus habilidades le llevarán a la cima de la clasificación. ¡Paf! ¡Auch!",
      "El Bruto ha vuelto esta vez más divertido y más social: Nuevos torneos, curación de heridas y más habilidades... ¡Esto va a doler!"
    ],
    "de": [
      "Gebrochene Kiefer, blutige Nasen und üble Schädelbrüche! Dieses Spiel ist ein wahres Gemetzel!"
    ]
  },
  "favicon": "favicon.ico",
  "cover": {
    "fr": "cover.fr.png",
    "en": "cover.en.png",
    "es": "cover.es.png",
    "de": "cover.de.png"
  },
  "banner": false,
  "screenshots": {
    "fr": [
      "screenshots/screen1.fr.png",
      "screenshots/screen2.fr.png",
      "screenshots/screen3.fr.png",
      "screenshots/screen4.fr.png",
      "screenshots/screen5.fr.png",
      "screenshots/screen6.fr.png",
      "screenshots/screen7.fr.png"
    ],
    "en": [
      "screenshots/screen1.en.png"
    ],
    "es": [
      "screenshots/screen1.es.png",
      "screenshots/screen2.es.png",
      "screenshots/screen3.es.png",
      "screenshots/screen4.es.png",
      "screenshots/screen5.es.png",
      "screenshots/screen6.es.png"
    ],
    "de": [
      "screenshots/screen1.de.png",
      "screenshots/screen2.de.png",
      "screenshots/screen3.de.png",
      "screenshots/screen4.de.png"
    ]
  }
}